<svg width="21" height="16" viewBox="0 0 21 16" fill="none" xmlns="http://www.w3.org/2000/svg">
<path d="M19.0813 3.557C18.9816 3.15862 18.7785 2.79362 18.4926 2.49885C18.2066 2.20408 17.848 1.98998 17.4528 1.87819C16.0091 1.52563 10.2339 1.52563 10.2339 1.52563C10.2339 1.52563 4.45883 1.52563 3.01505 1.91176C2.6199 2.02356 2.26125 2.23765 1.97532 2.53242C1.68939 2.82719 1.48632 3.1922 1.38661 3.59057C1.12237 5.0558 0.993123 6.54219 1.00048 8.03103C0.991061 9.53109 1.12032 11.0288 1.38661 12.5051C1.49653 12.8911 1.70416 13.2422 1.98942 13.5245C2.27468 13.8068 2.62794 14.0108 3.01505 14.1167C4.45883 14.5029 10.2339 14.5029 10.2339 14.5029C10.2339 14.5029 16.0091 14.5029 17.4528 14.1167C17.848 14.0049 18.2066 13.7908 18.4926 13.4961C18.7785 13.2013 18.9816 12.8363 19.0813 12.4379C19.3435 10.9837 19.4727 9.50867 19.4674 8.03103C19.4768 6.53098 19.3476 5.03326 19.0813 3.557V3.557Z" stroke="#EA4335" stroke-width="2" stroke-linecap="round" stroke-linejoin="round"/>
<path d="M8.34531 10.776L13.1719 8.03112L8.34531 5.28626V10.776Z" stroke="#EA4335" stroke-width="2" stroke-linecap="round" stroke-linejoin="round"/>
</svg>
