<svg width="14" height="20" viewBox="0 0 14 20" fill="none" xmlns="http://www.w3.org/2000/svg">
<path d="M11.0729 1.68622H2.67881C1.75163 1.68622 1 2.43785 1 3.36503V16.7955C1 17.7227 1.75163 18.4743 2.67881 18.4743H11.0729C12.0001 18.4743 12.7517 17.7227 12.7517 16.7955V3.36503C12.7517 2.43785 12.0001 1.68622 11.0729 1.68622Z" stroke="#EA4335" stroke-width="2" stroke-linecap="round" stroke-linejoin="round"/>
<path d="M6.87585 15.1167H6.88482" stroke="#EA4335" stroke-width="2" stroke-linecap="round" stroke-linejoin="round"/>
</svg>
