<svg width="19" height="17" viewBox="0 0 19 17" fill="none" xmlns="http://www.w3.org/2000/svg">
<path d="M18 14.3333C18 14.7754 17.8209 15.1993 17.5021 15.5118C17.1833 15.8244 16.7509 16 16.3 16H2.7C2.24913 16 1.81673 15.8244 1.49792 15.5118C1.17911 15.1993 1 14.7754 1 14.3333V2.66667C1 2.22464 1.17911 1.80072 1.49792 1.48816C1.81673 1.17559 2.24913 1 2.7 1H6.95L8.65 3.5H16.3C16.7509 3.5 17.1833 3.67559 17.5021 3.98816C17.8209 4.30072 18 4.72464 18 5.16667V14.3333Z" stroke="#EA4335" stroke-width="2" stroke-linecap="round" stroke-linejoin="round"/>
</svg>
